02_riscv/out/sim.vcd
$date
	Tue Jan 09 19:05:21 2024
$end
$version
	ModelSim Version 10.1d
$end
$timescale
	1ps
$end
$scope module testbench $end
$var parameter 32 ! CLK_PERIOD $end
$var reg 1 " clk $end
$var reg 1 # aresetn $end
$var reg 32 $ instr [31:0] $end
$var reg 32 % i_imm [31:0] $end
$var reg 32 & s_imm [31:0] $end
$var reg 32 ' b_imm [31:0] $end
$var reg 32 ( u_imm [31:0] $end
$var reg 32 ) j_imm [31:0] $end
$upscope $end
$enddefinitions $end
#0
$dumpvars
0"
0#
bx $
b0 %
b0 &
b0 '
b0 (
b0 )
b1010 !
$end
#5
1"
#10
1#
0"
#15
1"
b1000001100101000001011101011011 $
b0xxxxxxxxxxxxxxxxxxxxxxxxxxxxxxx %
bx0 &
bx '
b0xxxxxxxxxxxxxxxxxxxx00000000000 (
bx0 )
#20
0"
#25
1"
b1010100110100001010010111010 $
b10000011001 %
b10000001110 &
b10000001110 '
b100000110010100000100000000000 (
b1000001111000 )
#30
0"
#35
1"
b100100101000001011011001010000 $
b10101001 %
b100010101000 &
b10101001 '
b101010011010000100000000000 (
b10100001101000 )
#40
0"
#45
1"
b1101100001010010100100011011011 $
b1001001010 %
b1001001100 &
b1001001100 '
b10010010100000101100000000000 (
b1011001010 )
#50
0"
#55
1"
b1000110101110001000101011110 $
b11011000010 %
b111011010000 &
b11011010001 '
b110110000101001010000000000000 (
b10010100000010 )
#60
0"
#65
1"
b110011010010101010011011110100 $
b10001101 %
b10000010 &
b10000010 '
b100011010111000100000000000 (
b1110001101100 )
#70
0"
#75
1"
b10101101011001011001110010110 $
b1100110100 %
b101100101100 &
b1100101101 '
b11001101001010101000000000000 (
b10101010010100 )
#80
0"
#85
1"
b100001011111110111001010000000 $
b101011010 %
b100101000110 &
b101000111 '
b1010110101100101100000000000 (
b11001011011010 )
#90
0"
#95
1"
b110000100111001111000100110011 $
b1000010111 %
b101000000100 &
b1000000101 '
b10000101111111011100000000000 (
b11110111110110 )
#100
0"
#105
1"
b1011000111000111110101101010100 $
b1100001001 %
b1100000010 &
b1100000010 '
b11000010011100111100000000000 (
b11001111101000 )
#110
0"
#115
1"
b11101111111101111111111110010 $
b10110001110 %
b10110010110 &
b10110010110 '
b101100011100011111000000000000 (
b111110001110 )
#120
0"
#125
1"
b1011111100101001010010001111 $
b111011111 %
b100111011110 &
b111011111 '
b1110111111110111100000000000 (
b11101111111110 )
#130
0"
#135
1"
b1111011100010001111001000000010 $
b10111111 %
b100010101000 &
b10101001 '
b101111110010100100000000000 (
b101001111110 )
#140
0"
#145
1"
b1100001010111111001000010000010 $
b11110111000 %
b11110100100 &
b11110100100 '
b111101110001000111100000000000 (
b10001111011000 )
#150
0"
#155
1"
b101101000110001110111011000110 $
b11000010101 %
b111000000000 &
b11000000001 '
b110000101011111100100000000000 (
b11111001110100 )
#160
0"
#165
1"
b10111010001001110010010010100 $
b1011010001 %
b101011011100 &
b1011011101 '
b10110100011000111000000000000 (
b10001110110000 )
#170
0"
#175
1"
b1111010000100111110101111010010 $
b101110100 %
b100101101000 &
b101101001 '
b1011101000100111000000000000 (
b1001110010100 )
#180
0"
#185
1"
b11001010111011110111000000010 $
b11110100001 %
b111110110110 &
b11110110111 '
b111101000010011111000000000000 (
b111110100000 )
#190
0"
#195
1"
b110011011000110101101101101011 $
b110010101 %
b110011100 &
b110011100 '
b1100101011101111000000000000 (
b11011110110100 )
#200
0"
#205
1"
b1101001010100001010111000010100 $
b1100110110 %
b1100110110 &
b1100110110 '
b11001101100011010100000000000 (
b110101010110 )
#210
0"
#215
1"
b111011000000111101000010000101 $
b11010010101 %
b11010011100 &
b11010011100 '
b110100101010000101000000000000 (
b1010110100 )
#220
0"
#225
1"
b110100101000001111100001000100 $
b1110110000 %
b101110100000 &
b1110100001 '
b11101100000011110100000000000 (
b111101010000 )
#230
0"
#235
1"
b1111100100010111100100110001111 $
b1101001010 %
b1101010000 &
b1101010000 '
b11010010100000111100000000000 (
b1111001010 )
#240
0"
#245
1"
b1101100100101011100000101000101 $
b11111001000 %
b111111010010 &
b11111010011 '
b111110010001011110000000000000 (
b10111100001000 )
#250
0"
#255
1"
b110111011110110101110010011111 $
b11011001001 %
b11011000010 &
b11011000010 '
b110110010010101110000000000000 (
b1011100101000 )
#260
0"
#265
1"
b1101110111 %
b101101111000 &
b1101111001 '
b11011101111011010100000000000 (
b10110101110110 )
